Final
…
#reading crude oil data

crudeoil <- read_excel("Crude Oil WTI.xlsx")

## Warning: Expecting numeric in G2645 / R2645C7: got '-'

print(crudeoil)

## # A tibble: 2,828 × 7
##    Date                 Open  High   Low `Close ` `Adj Close ` Volume
##    <dttm>              <dbl> <dbl> <dbl>    <dbl>        <dbl>  <dbl>
##  1 2012-10-01 00:00:00  92.2  93.3  91.3     92.5         92.5 216005
##  2 2012-10-02 00:00:00  92.4  92.9  91.6     91.9         91.9 177728
##  3 2012-10-03 00:00:00  91.6  91.8  87.7     88.1         88.1 339506
##  4 2012-10-04 00:00:00  88.0  91.8  87.9     91.7         91.7 291389
##  5 2012-10-05 00:00:00  91.5  91.7  89.0     89.9         89.9 279131
##  6 2012-10-08 00:00:00  89.8  89.9  88.2     89.3         89.3 202688
##  7 2012-10-09 00:00:00  89.6  92.9  89.3     92.4         92.4 378040
##  8 2012-10-10 00:00:00  92.3  93.7  91.0     91.2         91.2 303502
##  9 2012-10-11 00:00:00  91.3  92.9  91.1     92.1         92.1 300087
## 10 2012-10-12 00:00:00  92.4  92.6  91.2     91.9         91.9 198462
## # ℹ 2,818 more rows
…
#Unemployment rate

#reading Unemployment rate Data

library(readxl)
UNEMP_AUSTRALIA <- read_excel("Unemployment Rate - Australia.xls",skip = 10)
UNEMP_CANADA <- read_excel("Unemployment Rate - Canada.xls",skip = 10)
UNEMP_EURO <- read_excel("Unemployment Rate - Euro.xls",skip = 10)
UNEMP_JAPAN <- read_excel("Unemployment Rate - Japan.xls",skip = 10)
UNEMP_UK <- read_excel("Unemployment Rate - UK.xls",skip = 10)
UNEMP_US <- read_excel("Unemployment Rate - US.xls",skip = 10)

print(UNEMP_AUSTRALIA)

## # A tibble: 135 × 2
##    observation_date    LRUNTTTTAUM156S
##    <dttm>                        <dbl>
##  1 2012-10-01 00:00:00            5.41
##  2 2012-11-01 00:00:00            5.26
##  3 2012-12-01 00:00:00            5.43
##  4 2013-01-01 00:00:00            5.39
##  5 2013-02-01 00:00:00            5.39
##  6 2013-03-01 00:00:00            5.64
##  7 2013-04-01 00:00:00            5.59
##  8 2013-05-01 00:00:00            5.61
##  9 2013-06-01 00:00:00            5.70
## 10 2013-07-01 00:00:00            5.64
## # ℹ 125 more rows
…
## # A tibble: 6 × 4
##   observation_date    LRUNTTTTAUM156S Country   Country_ID
##   <dttm>                        <dbl> <chr>          <int>
## 1 2012-10-01 00:00:00            5.41 Australia          1
## 2 2012-11-01 00:00:00            5.26 Australia          1
## 3 2012-12-01 00:00:00            5.43 Australia          1
## 4 2013-01-01 00:00:00            5.39 Australia          1
## 5 2013-02-01 00:00:00            5.39 Australia          1
## 6 2013-03-01 00:00:00            5.64 Australia          1

print(UNEMP_CANADA)

## # A tibble: 135 × 4
##    observation_date    LRUNTTTTCAM156S Country Country_ID
##    <dttm>                        <dbl> <chr>        <int>
##  1 2012-10-01 00:00:00             7.4 Canada           2
##  2 2012-11-01 00:00:00             7.3 Canada           2
##  3 2012-12-01 00:00:00             7.2 Canada           2
##  4 2013-01-01 00:00:00             7.1 Canada           2
##  5 2013-02-01 00:00:00             7   Canada           2
##  6 2013-03-01 00:00:00             7.3 Canada           2
##  7 2013-04-01 00:00:00             7.2 Canada           2
##  8 2013-05-01 00:00:00             7   Canada           2
##  9 2013-06-01 00:00:00             7.2 Canada           2
## 10 2013-07-01 00:00:00             7.3 Canada           2
## # ℹ 125 more rows
…
## # A tibble: 6 × 4
##   Date       `CPI rate` Country   Country_ID
##   <date>          <dbl> <chr>          <int>
## 1 2012-10-01       102  Australia          1
## 2 2012-11-01       102. Australia          1
## 3 2012-12-01       102. Australia          1
## 4 2013-01-01       102. Australia          1
## 5 2013-02-01       103. Australia          1
## 6 2013-03-01       103. Australia          1

# Print the result for CPI_Canada
print(CPI_Canada)

## # A tibble: 135 × 4
##    observation_date    CPALCY01CAM661N Country Country_ID
##    <dttm>                        <dbl> <chr>        <int>
##  1 2012-10-01 00:00:00            96.8 Canada           2
##  2 2012-11-01 00:00:00            96.7 Canada           2
##  3 2012-12-01 00:00:00            96.2 Canada           2
##  4 2013-01-01 00:00:00            96.2 Canada           2
##  5 2013-02-01 00:00:00            97.4 Canada           2
##  6 2013-03-01 00:00:00            97.2 Canada           2
##  7 2013-04-01 00:00:00            97.2 Canada           2
##  8 2013-05-01 00:00:00            97.4 Canada           2
##  9 2013-06-01 00:00:00            97.2 Canada           2
## 10 2013-07-01 00:00:00            97.3 Canada           2
## # ℹ 125 more rows
…
## # A tibble: 6 × 4
##   observation_date RealGDP Country   Country_ID
##   <date>             <dbl> <chr>          <int>
## 1 2012-10-01       472773  Australia          1
## 2 2012-11-01       473621. Australia          1
## 3 2012-12-01       474443. Australia          1
## 4 2013-01-01       475291  Australia          1
## 5 2013-02-01       475939. Australia          1
## 6 2013-03-01       476525. Australia          1

print(GDP_CANADA)

## # A tibble: 138 × 4
##    observation_date RealGDP Country Country_ID
##    <date>             <dbl> <chr>        <int>
##  1 2012-10-01       486668. Canada           2
##  2 2012-11-01       488135. Canada           2
##  3 2012-12-01       489556. Canada           2
##  4 2013-01-01       491024. Canada           2
##  5 2013-02-01       491998. Canada           2
##  6 2013-03-01       492878. Canada           2
##  7 2013-04-01       493852. Canada           2
##  8 2013-05-01       495190. Canada           2
##  9 2013-06-01       496574. Canada           2
## 10 2013-07-01       497912. Canada           2
## # ℹ 128 more rows
…
# Extract and display results
results_by_country <- results_by_country %>%
  select(Country, regression_summary)

# Print regression summaries for each country
print("Regression Summaries by Country:")

## [1] "Regression Summaries by Country:"

results_by_country$regression_summary

## [[1]]
## # A tibble: 28 × 5
##    term                 estimate  std.error statistic   p.value
##    <chr>                   <dbl>      <dbl>     <dbl>     <dbl>
##  1 (Intercept)         2.36      0.0414        56.8   0        
##  2 SP500               0.0000372 0.00000261    14.2   2.48e- 44
##  3 VIX                -0.00158   0.0000861    -18.4   4.60e- 71
##  4 CrudeOil            0.00173   0.0000325     53.4   0        
##  5 UnemploymentRate   -0.00633   0.00167       -3.80  1.51e-  4
##  6 USUnemploymentRate -0.0122    0.00111      -10.9   3.13e- 27
##  7 GoldImport          0.000570  0.000725       0.786 4.32e-  1
##  8 GoldExport          0.000190  0.000757       0.251 8.02e-  1
##  9 CPI                -0.0127    0.000361     -35.2   2.23e-222
## 10 USCPI              -0.0160    0.00161       -9.92  8.58e- 23
## # ℹ 18 more rows
## 
## [[2]]
## # A tibble: 28 × 5
##    term                 estimate  std.error statistic   p.value
##    <chr>                   <dbl>      <dbl>     <dbl>     <dbl>
##  1 (Intercept)        -0.772     0.0505        -15.3  1.27e- 50
##  2 SP500              -0.0000614 0.00000321    -19.1  1.99e- 76
##  3 VIX                 0.00129   0.0000997      13.0  2.66e- 37
##  4 CrudeOil           -0.00259   0.0000566     -45.6  0        
##  5 UnemploymentRate    0.0406    0.00190        21.4  2.23e- 93
##  6 USUnemploymentRate -0.0216    0.00184       -11.8  2.73e- 31
##  7 GoldImport         -0.00238   0.000737       -3.23 1.24e-  3
##  8 GoldExport          0.00198   0.000768        2.58 9.82e-  3
##  9 CPI                 0.0128    0.000384       33.4  5.86e-204
## 10 USCPI               0.0236    0.00223        10.6  7.44e- 26
## # ℹ 18 more rows
## 
## [[3]]
## # A tibble: 28 × 5
##    term                 estimate  std.error statistic   p.value
##    <chr>                   <dbl>      <dbl>     <dbl>     <dbl>
##  1 (Intercept)         2.10      0.146         14.4   2.96e- 45
##  2 SP500              -0.0000233 0.00000647    -3.61  3.18e-  4
##  3 VIX                -0.00146   0.000178      -8.17  4.68e- 16
##  4 CrudeOil            0.00323   0.0000766     42.2   2.77e-297
##  5 UnemploymentRate    0.00438   0.00207        2.11  3.45e-  2
##  6 USUnemploymentRate  0.0117    0.00250        4.68  2.98e-  6
##  7 GoldImport         -0.000691  0.00136       -0.509 6.11e-  1
##  8 GoldExport          0.000970  0.00142        0.685 4.93e-  1
##  9 CPI                -0.0172    0.000668     -25.8   6.09e-131
## 10 USCPI              -0.0197    0.00342       -5.77  8.82e-  9
## # ℹ 18 more rows
## 
## [[4]]
## # A tibble: 28 × 5
##    term                   estimate    std.error statistic   p.value
##    <chr>                     <dbl>        <dbl>     <dbl>     <dbl>
##  1 (Intercept)         0.0179      0.00140          12.7  4.05e- 36
##  2 SP500               0.000000224 0.0000000484      4.63 3.81e-  6
##  3 VIX                -0.0000107   0.00000161       -6.62 4.22e- 11
##  4 CrudeOil            0.00000314  0.000000519       6.04 1.77e-  9
##  5 UnemploymentRate   -0.00108     0.0000461       -23.3  1.40e-109
##  6 USUnemploymentRate -0.0000505   0.0000183        -2.76 5.81e-  3
##  7 GoldImport         -0.0000873   0.0000124        -7.05 2.24e- 12
##  8 GoldExport          0.0000992   0.0000129         7.67 2.39e- 14
##  9 CPI                -0.0000618   0.0000272        -2.28 2.29e-  2
## 10 USCPI              -0.000121    0.0000278        -4.35 1.39e-  5
## # ℹ 18 more rows
## 
## [[5]]
## # A tibble: 28 × 5
##    term                estimate  std.error statistic   p.value
##    <chr>                  <dbl>      <dbl>     <dbl>     <dbl>
##  1 (Intercept)         3.33     0.171          19.5  1.70e- 79
##  2 SP500               0.000194 0.00000678     28.6  2.55e-156
##  3 VIX                 0.00135  0.000256        5.27 1.51e-  7
##  4 CrudeOil            0.00110  0.0000827      13.3  4.59e- 39
##  5 UnemploymentRate    0.0973   0.00372        26.2  2.94e-134
##  6 USUnemploymentRate -0.0280   0.00386        -7.26 5.16e- 13
##  7 GoldImport          0.0226   0.00181        12.5  8.65e- 35
##  8 GoldExport         -0.0243   0.00189       -12.9  8.21e- 37
##  9 CPI                -0.0336   0.00372        -9.05 2.74e- 19
## 10 USCPI               0.0119   0.00420         2.83 4.64e-  3
## # ℹ 18 more rows
…
# Access results for a specific country
# Example: Access results for "Australia"
print(all_countries_results[["Australia"]])

## # A tibble: 2,631 × 28
##    Country   Country_ID Date         VIX ExchangeRate CrudeOil SP500 RelDiffCPI
##    <chr>          <dbl> <date>     <dbl>        <dbl>    <dbl> <dbl>      <dbl>
##  1 Australia          1 2013-01-03  14.6         1.05     92.9 1459.      0.294
##  2 Australia          1 2013-01-04  13.8         1.05     93.1 1466.      0.294
##  3 Australia          1 2013-01-07  13.8         1.05     93.2 1462.      0.294
##  4 Australia          1 2013-01-08  13.6         1.05     93.2 1457.      0.294
##  5 Australia          1 2013-01-09  13.8         1.05     93.1 1461.      0.294
##  6 Australia          1 2013-01-10  13.5         1.06     93.8 1472.      0.294
##  7 Australia          1 2013-01-11  13.4         1.05     93.6 1472.      0.294
##  8 Australia          1 2013-01-14  13.5         1.06     94.1 1471.      0.294
##  9 Australia          1 2013-01-15  13.6         1.06     93.3 1472.      0.294
## 10 Australia          1 2013-01-16  13.4         1.06     94.2 1473.      0.294
## # ℹ 2,621 more rows
## # ℹ 20 more variables: VIX_lag1 <dbl>, VIX_lag2 <dbl>, VIX_lag3 <dbl>,
## #   VIX_lag4 <dbl>, VIX_lag5 <dbl>, CrudeOil_lag1 <dbl>, CrudeOil_lag2 <dbl>,
## #   CrudeOil_lag3 <dbl>, CrudeOil_lag4 <dbl>, CrudeOil_lag5 <dbl>,
## #   SP500_lag1 <dbl>, SP500_lag2 <dbl>, SP500_lag3 <dbl>, SP500_lag4 <dbl>,
## #   SP500_lag5 <dbl>, Predicted_ExchangeRate_Lag1 <dbl>,
## #   Predicted_ExchangeRate_Lag2 <dbl>, Predicted_ExchangeRate_Lag3 <dbl>, …
…
# Access results for a specific country
# Example: Access results for "Australia"
print(all_countries_results[["Australia"]])

## # A tibble: 2,631 × 28
##    Country  Country_ID Date         VIX ExchangeRate CrudeOil SP500 RelDiffUnemp
##    <chr>         <dbl> <date>     <dbl>        <dbl>    <dbl> <dbl>        <dbl>
##  1 Austral…          1 2013-01-03  14.6         1.05     92.9 1459.        -2.05
##  2 Austral…          1 2013-01-04  13.8         1.05     93.1 1466.        -2.05
##  3 Austral…          1 2013-01-07  13.8         1.05     93.2 1462.        -2.05
##  4 Austral…          1 2013-01-08  13.6         1.05     93.2 1457.        -2.05
##  5 Austral…          1 2013-01-09  13.8         1.05     93.1 1461.        -2.05
##  6 Austral…          1 2013-01-10  13.5         1.06     93.8 1472.        -2.05
##  7 Austral…          1 2013-01-11  13.4         1.05     93.6 1472.        -2.05
##  8 Austral…          1 2013-01-14  13.5         1.06     94.1 1471.        -2.05
##  9 Austral…          1 2013-01-15  13.6         1.06     93.3 1472.        -2.05
## 10 Austral…          1 2013-01-16  13.4         1.06     94.2 1473.        -2.05
## # ℹ 2,621 more rows
## # ℹ 20 more variables: VIX_lag1 <dbl>, VIX_lag2 <dbl>, VIX_lag3 <dbl>,
## #   VIX_lag4 <dbl>, VIX_lag5 <dbl>, CrudeOil_lag1 <dbl>, CrudeOil_lag2 <dbl>,
## #   CrudeOil_lag3 <dbl>, CrudeOil_lag4 <dbl>, CrudeOil_lag5 <dbl>,
## #   SP500_lag1 <dbl>, SP500_lag2 <dbl>, SP500_lag3 <dbl>, SP500_lag4 <dbl>,
## #   SP500_lag5 <dbl>, Predicted_ExchangeRate_Lag1 <dbl>,
## #   Predicted_ExchangeRate_Lag2 <dbl>, Predicted_ExchangeRate_Lag3 <dbl>, …
…
# Access results for a specific country
# Example: Access results for "Australia"
print(all_countries_results[["Australia"]])

## # A tibble: 2,631 × 28
##    Country   Country_ID Date         VIX ExchangeRate CrudeOil SP500 RelDiffGDP
##    <chr>          <dbl> <date>     <dbl>        <dbl>    <dbl> <dbl>      <dbl>
##  1 Australia          1 2013-01-03  14.6         1.05     92.9 1459.    0.00151
##  2 Australia          1 2013-01-04  13.8         1.05     93.1 1466.    0.00151
##  3 Australia          1 2013-01-07  13.8         1.05     93.2 1462.    0.00151
##  4 Australia          1 2013-01-08  13.6         1.05     93.2 1457.    0.00151
##  5 Australia          1 2013-01-09  13.8         1.05     93.1 1461.    0.00151
##  6 Australia          1 2013-01-10  13.5         1.06     93.8 1472.    0.00151
##  7 Australia          1 2013-01-11  13.4         1.05     93.6 1472.    0.00151
##  8 Australia          1 2013-01-14  13.5         1.06     94.1 1471.    0.00151
##  9 Australia          1 2013-01-15  13.6         1.06     93.3 1472.    0.00151
## 10 Australia          1 2013-01-16  13.4         1.06     94.2 1473.    0.00151
## # ℹ 2,621 more rows
## # ℹ 20 more variables: VIX_lag1 <dbl>, VIX_lag2 <dbl>, VIX_lag3 <dbl>,
## #   VIX_lag4 <dbl>, VIX_lag5 <dbl>, CrudeOil_lag1 <dbl>, CrudeOil_lag2 <dbl>,
## #   CrudeOil_lag3 <dbl>, CrudeOil_lag4 <dbl>, CrudeOil_lag5 <dbl>,
## #   SP500_lag1 <dbl>, SP500_lag2 <dbl>, SP500_lag3 <dbl>, SP500_lag4 <dbl>,
## #   SP500_lag5 <dbl>, Predicted_ExchangeRate_Lag1 <dbl>,
## #   Predicted_ExchangeRate_Lag2 <dbl>, Predicted_ExchangeRate_Lag3 <dbl>, …
…
# Access results for a specific country
# Example: Access results for "Australia"
print(all_countries_results[["Japan"]])

## # A tibble: 2,748 × 28
##    Country Country_ID Date           VIXPC     ERPC CrudeOilPC    SP500PC
##    <chr>        <dbl> <date>         <dbl>    <dbl>      <dbl>      <dbl>
##  1 Japan            4 2013-01-02 -0.102    NA         0.00703   0.0125   
##  2 Japan            4 2013-01-03 -0.00817   0.00207  -0.00215  -0.00209  
##  3 Japan            4 2013-01-04 -0.0501   -0.0138    0.00183   0.00487  
##  4 Japan            4 2013-01-07 -0.000966  0.00525   0.000358 -0.00104  
##  5 Japan            4 2013-01-08 -0.0123    0.00424  -0.000429 -0.00324  
##  6 Japan            4 2013-01-09  0.0140   -0.00671  -0.000537  0.00266  
##  7 Japan            4 2013-01-10 -0.0232   -0.00295   0.00773   0.00760  
##  8 Japan            4 2013-01-11 -0.00964  -0.0119   -0.00277  -0.0000476
##  9 Japan            4 2013-01-14  0.00396  -0.00134   0.00206  -0.000310 
## 10 Japan            4 2013-01-15  0.00222   0.00778  -0.00914   0.00113  
## # ℹ 2,738 more rows
## # ℹ 21 more variables: RelDiffCPI <dbl>, VIXPC_lag1 <dbl>, VIXPC_lag2 <dbl>,
## #   VIXPC_lag3 <dbl>, VIXPC_lag4 <dbl>, VIXPC_lag5 <dbl>,
## #   CrudeOilPC_lag1 <dbl>, CrudeOilPC_lag2 <dbl>, CrudeOilPC_lag3 <dbl>,
## #   CrudeOilPC_lag4 <dbl>, CrudeOilPC_lag5 <dbl>, SP500PC_lag1 <dbl>,
## #   SP500PC_lag2 <dbl>, SP500PC_lag3 <dbl>, SP500PC_lag4 <dbl>,
## #   SP500PC_lag5 <dbl>, Predicted_ERPC_Lag1 <dbl>, Predicted_ERPC_Lag2 <dbl>, …
…
# Access results for a specific country
# Example: Access results for "Australia"
print(all_countries_results[["Japan"]])

## # A tibble: 2,748 × 28
##    Country Country_ID Date           VIXPC     ERPC CrudeOilPC    SP500PC
##    <chr>        <dbl> <date>         <dbl>    <dbl>      <dbl>      <dbl>
##  1 Japan            4 2013-01-02 -0.102    NA         0.00703   0.0125   
##  2 Japan            4 2013-01-03 -0.00817   0.00207  -0.00215  -0.00209  
##  3 Japan            4 2013-01-04 -0.0501   -0.0138    0.00183   0.00487  
##  4 Japan            4 2013-01-07 -0.000966  0.00525   0.000358 -0.00104  
##  5 Japan            4 2013-01-08 -0.0123    0.00424  -0.000429 -0.00324  
##  6 Japan            4 2013-01-09  0.0140   -0.00671  -0.000537  0.00266  
##  7 Japan            4 2013-01-10 -0.0232   -0.00295   0.00773   0.00760  
##  8 Japan            4 2013-01-11 -0.00964  -0.0119   -0.00277  -0.0000476
##  9 Japan            4 2013-01-14  0.00396  -0.00134   0.00206  -0.000310 
## 10 Japan            4 2013-01-15  0.00222   0.00778  -0.00914   0.00113  
## # ℹ 2,738 more rows
## # ℹ 21 more variables: RelDiffUnemp <dbl>, VIXPC_lag1 <dbl>, VIXPC_lag2 <dbl>,
## #   VIXPC_lag3 <dbl>, VIXPC_lag4 <dbl>, VIXPC_lag5 <dbl>,
## #   CrudeOilPC_lag1 <dbl>, CrudeOilPC_lag2 <dbl>, CrudeOilPC_lag3 <dbl>,
## #   CrudeOilPC_lag4 <dbl>, CrudeOilPC_lag5 <dbl>, SP500PC_lag1 <dbl>,
## #   SP500PC_lag2 <dbl>, SP500PC_lag3 <dbl>, SP500PC_lag4 <dbl>,
## #   SP500PC_lag5 <dbl>, Predicted_ERPC_Lag1 <dbl>, Predicted_ERPC_Lag2 <dbl>, …
…
# Access results for a specific country
# Example: Access results for "Australia"
print(all_countries_results[["Japan"]])

## # A tibble: 2,748 × 28
##    Country Country_ID Date           VIXPC     ERPC CrudeOilPC    SP500PC
##    <chr>        <dbl> <date>         <dbl>    <dbl>      <dbl>      <dbl>
##  1 Japan            4 2013-01-02 -0.102    NA         0.00703   0.0125   
##  2 Japan            4 2013-01-03 -0.00817   0.00207  -0.00215  -0.00209  
##  3 Japan            4 2013-01-04 -0.0501   -0.0138    0.00183   0.00487  
##  4 Japan            4 2013-01-07 -0.000966  0.00525   0.000358 -0.00104  
##  5 Japan            4 2013-01-08 -0.0123    0.00424  -0.000429 -0.00324  
##  6 Japan            4 2013-01-09  0.0140   -0.00671  -0.000537  0.00266  
##  7 Japan            4 2013-01-10 -0.0232   -0.00295   0.00773   0.00760  
##  8 Japan            4 2013-01-11 -0.00964  -0.0119   -0.00277  -0.0000476
##  9 Japan            4 2013-01-14  0.00396  -0.00134   0.00206  -0.000310 
## 10 Japan            4 2013-01-15  0.00222   0.00778  -0.00914   0.00113  
## # ℹ 2,738 more rows
## # ℹ 21 more variables: RelDiffGDP <dbl>, VIXPC_lag1 <dbl>, VIXPC_lag2 <dbl>,
## #   VIXPC_lag3 <dbl>, VIXPC_lag4 <dbl>, VIXPC_lag5 <dbl>,
## #   CrudeOilPC_lag1 <dbl>, CrudeOilPC_lag2 <dbl>, CrudeOilPC_lag3 <dbl>,
## #   CrudeOilPC_lag4 <dbl>, CrudeOilPC_lag5 <dbl>, SP500PC_lag1 <dbl>,
## #   SP500PC_lag2 <dbl>, SP500PC_lag3 <dbl>, SP500PC_lag4 <dbl>,
## #   SP500PC_lag5 <dbl>, Predicted_ERPC_Lag1 <dbl>, Predicted_ERPC_Lag2 <dbl>, …
…
